{
    "$schema": "https://arkit.js.org/schema.json",
    "excludePatterns": [
        "test/**",
        "tests/**",
        "**/*.test.*",
        "**/*.spec.*",
        "**/*.cy.*"
    ],
    "components": [
        {
            "type": "Dependency",
            "patterns": ["node_modules/*"]
        },
        {
            "type": "Component",
            "patterns": ["**/*.ts", "**/*.tsx"]
        }
    ],
    "output": [
        {
        "path": "docs/src/_static/img/angular_structure_class.svg",
        "groups": [
            {
                "first": true,
                "components": [
                    "Component",
                    "Angular"
                ]
            },
            {
                "type": "Dependencies",
                "components": ["Dependency"]
            }
        ]
        }
    ]
}
